periodo; ano; min; max
1;2007;2007-01-01;2007-06-30
2;2007;2007-07-01;2007-12-30
1;2008;2008-01-01;2008-06-30
2;2008;2008-07-01;2008-12-30
1;2009;2009-01-01;2009-06-30
2;2009;2009-07-01;2009-12-30
1;2010;2010-01-01;2010-06-30
2;2010;2010-07-01;2010-12-30
1;2011;2011-01-01;2011-06-30
2;2011;2011-07-01;2011-12-30
1;2012;2012-01-01;2012-11-06
2;2012;2012-09-29;2013-04-24
3;2012;2012-10-29;2013-06-01
4;2012;2013-04-29;2013-05-31
1;2013;2013-04-06;2014-02-28
2;2013;2013-06-03;2014-02-28
3;2013;2013-10-03;2013-10-19
4;2013;2014-03-10;2014-04-05
1;2014;2014-04-07;2015-02-24
2;2014;2014-04-07;2015-04-21
4;2014;2015-03-06;2015-03-27
1;2015;2015-03-30;2015-12-23
2;2015;2015-08-24;2016-05-23
4;2015;2016-05-21;2016-07-02
1;2016;2016-05-28;2016-11-09
