"dmtm_cd_tempo";"dmtm_ds_periodo";"dmtm_nr_ano";"dmtm_nr_semestre";"dmtm_dt_inicio_periodo";"dmtm_dt_fim_periodo"
20094,000000;"2009.4";2009,000000;4,000000;01/07/2009;31/12/2009
20093,000000;"2009.3";2009,000000;3,000000;01/01/2009;30/06/2009
20114,000000;"2011.4";2011,000000;4,000000;01/07/2011;31/12/2011
20104,000000;"2010.4";2010,000000;4,000000;01/07/2010;31/12/2010
20084,000000;"2008.4";2008,000000;4,000000;01/07/2008;31/12/2008
20103,000000;"2010.3";2010,000000;3,000000;01/01/2010;30/06/2010
20071,000000;"2007.1";2007,000000;1,000000;01/01/2007;30/06/2007
20072,000000;"2007.2";2007,000000;2,000000;01/07/2007;30/12/2007
20081,000000;"2008.1";2008,000000;1,000000;01/01/2008;30/06/2008
20082,000000;"2008.2";2008,000000;2,000000;01/07/2008;30/12/2008
20091,000000;"2009.1";2009,000000;1,000000;01/01/2009;30/06/2009
20092,000000;"2009.2";2009,000000;2,000000;01/07/2009;30/12/2009
20101,000000;"2010.1";2010,000000;1,000000;01/01/2010;30/06/2010
20102,000000;"2010.2";2010,000000;2,000000;01/07/2010;30/12/2010
20111,000000;"2011.1";2011,000000;1,000000;01/01/2011;30/06/2011
20112,000000;"2011.2";2011,000000;2,000000;01/07/2011;30/12/2011
20121,000000;"2012.1";2012,000000;1,000000;01/01/2012;06/11/2012
20122,000000;"2012.2";2012,000000;2,000000;29/09/2012;24/04/2013
20123,000000;"2012.3";2012,000000;3,000000;29/10/2012;01/06/2013
20124,000000;"2012.4";2012,000000;4,000000;29/04/2013;31/05/2013
20131,000000;"2013.1";2013,000000;1,000000;06/04/2013;28/02/2014
20132,000000;"2013.2";2013,000000;2,000000;03/06/2013;28/02/2014
20133,000000;"2013.3";2013,000000;3,000000;03/10/2013;19/10/2013
20134,000000;"2013.4";2013,000000;4,000000;10/03/2014;05/04/2014
20141,000000;"2014.1";2014,000000;1,000000;07/04/2014;24/02/2015
20142,000000;"2014.2";2014,000000;2,000000;07/04/2014;21/04/2015
20144,000000;"2014.4";2014,000000;4,000000;06/03/2015;27/03/2015
20151,000000;"2015.1";2015,000000;1,000000;30/03/2015;23/12/2015
20152,000000;"2015.2";2015,000000;2,000000;24/08/2015;23/05/2016
20154,000000;"2015.4";2015,000000;4,000000;21/05/2016;02/07/2016
20161,000000;"2016.1";2016,000000;1,000000;28/05/2016;09/11/2016
